{
  "transactions": {
    "tran_id": {
      "0": 1,
      "1": 2,
      "2": 3,
      "3": 4,
      "4": 5,
      "5": 6,
      "6": 7,
      "7": 8,
      "8": 9
    },
    "transaction_date": {
      "0": "2019-01-01",
      "1": "2019-01-02",
      "2": "2019-01-03",
      "3": "2019-02-01",
      "4": "2019-02-05",
      "5": "2019-02-10",
      "6": "2019-03-01",
      "7": "2019-03-05",
      "8": "2019-03-18"
    },
    "account": {
      "0": "FundA",
      "1": "FundA",
      "2": "FundA",
      "3": "FundA",
      "4": "FundA",
      "5": "FundA",
      "6": "FundA",
      "7": "FundA",
      "8": "FundA"
    },
    "amount": {
      "0": 100,
      "1": 150,
      "2": -300,
      "3": 400,
      "4": -100,
      "5": 200,
      "6": 500,
      "7": -1000,
      "8": 100
    }
  },
  "adjustments": {
    "tran_id": {
      "0": 3
    },
    "adjustment_date": {
      "0": "2019-02-05"
    },
    "amount": {
      "0": -350
    }
  },
  "dynamic": false,
  "command": "adjusted_trans"
}
